R Summary Sheet
…
Stacking columns

To combine multiple columns into the same column, use the gather function. key = is the name of a new column that will identify which column the data originally came from. value = is the name of a new column that will contain the values that were originally in separate columns.

# Put the radius measurements from day 7 and day 14 into a single column (named Radius_mm)
mean_growth_long <- mean_growth %>%
  gather(key = Measurement_day, value = Radius_mm, Radius_mm_day7, Radius_mm_day14)

mean_growth_long

# A tibble: 34 x 4
# Groups:   IsolateID [13]
    IsolateID Culture_type Measurement_day Radius_mm
        <chr>        <chr>           <chr>     <dbl>
 1       S1-B    coculture  Radius_mm_day7  7.333333
 2       S1-B         solo  Radius_mm_day7 11.000000
 3       S2-B    coculture  Radius_mm_day7  7.666667
 4       S2-B         solo  Radius_mm_day7  5.350000
 5 T15-L1-F11         solo  Radius_mm_day7 20.000000
 6 T15-L1-F15    coculture  Radius_mm_day7 27.500000
 7 T15-L1-F15         solo  Radius_mm_day7 42.666667
 8 T15-L1-F18         solo  Radius_mm_day7 12.500000
 9 T15-L1-F22    coculture  Radius_mm_day7 18.750000
10 T15-L1-F22         solo  Radius_mm_day7 55.000000
# ... with 24 more rows

Calculating new columns

Add new columns based on calculations with other columns using mutate.

# Add a new column to lichens that indicates whether it is infected (ascomata > 0)
lichens <- lichens %>%
  mutate(Infected = Ascomata > 0) 

# Display the LichenID, Ascomata and Infected columns
lichens %>%
    select(LichenID, Ascomata, Infected)

# A tibble: 32 x 3
   LichenID Ascomata Infected
      <chr>    <int>    <lgl>
 1    G1-11        0    FALSE
 2     G1-3       10     TRUE
 3     G1-4       14     TRUE
 4     G1-6        2     TRUE
 5     G1-7        0    FALSE
 6     G1-8        0    FALSE
 7     G1-9        3     TRUE
 8     G2-2        4     TRUE
 9     G2-3        3     TRUE
10     G2-4        0    FALSE
# ... with 22 more rows

# Add columns to mean_growth_long that indicate the number of days
# and then calculate growth rate (mm per day)
mean_growth_long <- mean_growth_long %>%
  mutate(Days = ifelse(Measurement_day == "Radius_mm_day7", 7, 14), 
         Growth_mm_day = Radius_mm / Days
  )
         
mean_growth_long

# A tibble: 34 x 6
# Groups:   IsolateID [13]
    IsolateID Culture_type Measurement_day Radius_mm  Days Growth_mm_day
        <chr>        <chr>           <chr>     <dbl> <dbl>         <dbl>
 1       S1-B    coculture  Radius_mm_day7  7.333333     7     1.0476190
 2       S1-B         solo  Radius_mm_day7 11.000000     7     1.5714286
 3       S2-B    coculture  Radius_mm_day7  7.666667     7     1.0952381
 4       S2-B         solo  Radius_mm_day7  5.350000     7     0.7642857
 5 T15-L1-F11         solo  Radius_mm_day7 20.000000     7     2.8571429
 6 T15-L1-F15    coculture  Radius_mm_day7 27.500000     7     3.9285714
 7 T15-L1-F15         solo  Radius_mm_day7 42.666667     7     6.0952381
 8 T15-L1-F18         solo  Radius_mm_day7 12.500000     7     1.7857143
 9 T15-L1-F22    coculture  Radius_mm_day7 18.750000     7     2.6785714
10 T15-L1-F22         solo  Radius_mm_day7 55.000000     7     7.8571429
# ... with 24 more rows
…
